Departement;Service;Acronyme;NbEmployes
Direction des Ressources Humaines;Formation;DRH-Formation;24;
Direction des Ressources Humaines;Paye;DRH-Paye;48;
Direction des Ressources Humaines;Accueil et Service Généraux;DRH-Accueil et Service Généraux;24;
Direction du Marketing;Clients;DM-Clients;84;
Direction du Marketing;Prospects;DM-Prospects;24;
Direction du Marketing;Concurrence;DM-Concurrence;24;
Direction de la Stratégie;Développement;DS-Développement;24;
Direction de la Stratégie;Recherche;DS-Recherche;36;
Direction de la Stratégie;Sécurité du Travail;DS-Sécurité du Travail;12;
Direction de la Stratégie;Juridique;DS-Juridique;24;
Direction Informatique & Financière;Maintenance;DIF-Maintenance;36;
Direction Informatique & Financière;Développement;DIF-Développement;24;
Direction Informatique & Financière;Comptabilité;DIF-Comptabilité;36;
Direction Informatique & Financière;Contrôle de Gestion;DIF-Contrôle de Gestion;24;
Direction Informatique & Financière;Audits;DIF-Audits;24;
Direction Informatique & Financière;Achats;DIF-Achats;48;
Direction Commerciale;France;DC-France;180;
Direction Commerciale;International;DC-International;48;
Direction Commerciale;Télévente;DC-Télévente;132;
Direction Industrielle;Production;DI-Production;660;
Direction Industrielle;Maintenance;DI-Maintenance;192;
Direction Industrielle;Gestion des Stocks;DI-Gestion des Stocks;72;

