Departement;Service;Acronyme;NbEmployes
Direction des Ressources Humaines;Formation;DRH-Formation;26;
Direction des Ressources Humaines;Paye;DRH-Paye;52;
Direction des Ressources Humaines;Accueil et Service Généraux;DRH-Accueil et Service Généraux;26;
Direction du Marketing;Clients;DM-Clients;91;
Direction du Marketing;Prospects;DM-Prospects;26;
Direction du Marketing;Concurrence;DM-Concurrence;26;
Direction de la Stratégie;Développement;DS-Développement;26;
Direction de la Stratégie;Recherche;DS-Recherche;39;
Direction de la Stratégie;Sécurité du Travail;DS-Sécurité du Travail;13;
Direction de la Stratégie;Juridique;DS-Juridique;26;
Direction Informatique & Financière;Maintenance;DIF-Maintenance;39;
Direction Informatique & Financière;Développement;DIF-Développement;26;
Direction Informatique & Financière;Comptabilité;DIF-Comptabilité;39;
Direction Informatique & Financière;Contrôle de Gestion;DIF-Contrôle de Gestion;26;
Direction Informatique & Financière;Audits;DIF-Audits;26;
Direction Informatique & Financière;Achats;DIF-Achats;52;
Direction Commerciale;France;DC-France;195;
Direction Commerciale;International;DC-International;52;
Direction Commerciale;Télévente;DC-Télévente;143;
Direction Industrielle;Production;DI-Production;715;
Direction Industrielle;Maintenance;DI-Maintenance;208;
Direction Industrielle;Gestion des Stocks;DI-Gestion des Stocks;78;

