Departement;Service;Acronyme;NbEmployes
Direction des Ressources Humaines;Formation;DRH-Formation;22;
Direction des Ressources Humaines;Paye;DRH-Paye;44;
Direction des Ressources Humaines;Accueil et Service Généraux;DRH-Accueil et Service Généraux;22;
Direction du Marketing;Clients;DM-Clients;77;
Direction du Marketing;Prospects;DM-Prospects;22;
Direction du Marketing;Concurrence;DM-Concurrence;22;
Direction de la Stratégie;Développement;DS-Développement;22;
Direction de la Stratégie;Recherche;DS-Recherche;33;
Direction de la Stratégie;Sécurité du Travail;DS-Sécurité du Travail;11;
Direction de la Stratégie;Juridique;DS-Juridique;22;
Direction Informatique & Financière;Maintenance;DIF-Maintenance;33;
Direction Informatique & Financière;Développement;DIF-Développement;22;
Direction Informatique & Financière;Comptabilité;DIF-Comptabilité;33;
Direction Informatique & Financière;Contrôle de Gestion;DIF-Contrôle de Gestion;22;
Direction Informatique & Financière;Audits;DIF-Audits;22;
Direction Informatique & Financière;Achats;DIF-Achats;44;
Direction Commerciale;France;DC-France;165;
Direction Commerciale;International;DC-International;44;
Direction Commerciale;Télévente;DC-Télévente;121;
Direction Industrielle;Production;DI-Production;605;
Direction Industrielle;Maintenance;DI-Maintenance;176;
Direction Industrielle;Gestion des Stocks;DI-Gestion des Stocks;66;

