Departement;Service;Acronyme;NbEmployes
Direction des Ressources Humaines;Formation;DRH-Formation;20;
Direction des Ressources Humaines;Paye;DRH-Paye;40;
Direction des Ressources Humaines;Accueil et Service Généraux;DRH-Accueil et Service Généraux;20;
Direction du Marketing;Clients;DM-Clients;70;
Direction du Marketing;Prospects;DM-Prospects;20;
Direction du Marketing;Concurrence;DM-Concurrence;20;
Direction de la Stratégie;Développement;DS-Développement;20;
Direction de la Stratégie;Recherche;DS-Recherche;30;
Direction de la Stratégie;Sécurité du Travail;DS-Sécurité du Travail;10;
Direction de la Stratégie;Juridique;DS-Juridique;20;
Direction Informatique & Financière;Maintenance;DIF-Maintenance;30;
Direction Informatique & Financière;Développement;DIF-Développement;20;
Direction Informatique & Financière;Comptabilité;DIF-Comptabilité;30;
Direction Informatique & Financière;Contrôle de Gestion;DIF-Contrôle de Gestion;20;
Direction Informatique & Financière;Audits;DIF-Audits;20;
Direction Informatique & Financière;Achats;DIF-Achats;40;
Direction Commerciale;France;DC-France;150;
Direction Commerciale;International;DC-International;40;
Direction Commerciale;Télévente;DC-Télévente;110;
Direction Industrielle;Production;DI-Production;550;
Direction Industrielle;Maintenance;DI-Maintenance;160;
Direction Industrielle;Gestion des Stocks;DI-Gestion des Stocks;60;

